%!PS-Adobe-3.0 EPSF-3.0
%%Creator: (MATLAB, The Mathworks, Inc. Version 9.10.0.1739362 \(R2021a\) Update 5. Operating System: Windows 10)
%%Title: (C:/Users/rkurnia/Documents/Test-VirtualBox/NEMOH_LHEEA/output/Journee Hydro paper/OC4_Platform/figures/QTFM_Pitch_beta030_diag.eps)
%%CreationDate: 2022-10-27T04:28:30
%%Pages: (atend)
%%BoundingBox:     0     0   420   315
%%LanguageLevel: 3
%%EndComments
%%BeginProlog
%%BeginResource: procset (Apache XML Graphics Std ProcSet) 1.2 0
%%Version: 1.2 0
%%Copyright: (Copyright 2001-2003,2010 The Apache Software Foundation. License terms: http://www.apache.org/licenses/LICENSE-2.0)
/bd{bind def}bind def
/ld{load def}bd
/GR/grestore ld
/GS/gsave ld
/RM/rmoveto ld
/C/curveto ld
/t/show ld
/L/lineto ld
/ML/setmiterlimit ld
/CT/concat ld
/f/fill ld
/N/newpath ld
/S/stroke ld
/CC/setcmykcolor ld
/A/ashow ld
/cp/closepath ld
/RC/setrgbcolor ld
/LJ/setlinejoin ld
/GC/setgray ld
/LW/setlinewidth ld
/M/moveto ld
/re {4 2 roll M
1 index 0 rlineto
0 exch rlineto
neg 0 rlineto
cp } bd
/_ctm matrix def
/_tm matrix def
/BT { _ctm currentmatrix pop matrix _tm copy pop 0 0 moveto } bd
/ET { _ctm setmatrix } bd
/iTm { _ctm setmatrix _tm concat } bd
/Tm { _tm astore pop iTm 0 0 moveto } bd
/ux 0.0 def
/uy 0.0 def
/F {
  /Tp exch def
  /Tf exch def
  Tf findfont Tp scalefont setfont
  /cf Tf def  /cs Tp def
} bd
/ULS {currentpoint /uy exch def /ux exch def} bd
/ULE {
  /Tcx currentpoint pop def
  gsave
  newpath
  cf findfont cs scalefont dup
  /FontMatrix get 0 get /Ts exch def /FontInfo get dup
  /UnderlinePosition get Ts mul /To exch def
  /UnderlineThickness get Ts mul /Tt exch def
  ux uy To add moveto  Tcx uy To add lineto
  Tt setlinewidth stroke
  grestore
} bd
/OLE {
  /Tcx currentpoint pop def
  gsave
  newpath
  cf findfont cs scalefont dup
  /FontMatrix get 0 get /Ts exch def /FontInfo get dup
  /UnderlinePosition get Ts mul /To exch def
  /UnderlineThickness get Ts mul /Tt exch def
  ux uy To add cs add moveto Tcx uy To add cs add lineto
  Tt setlinewidth stroke
  grestore
} bd
/SOE {
  /Tcx currentpoint pop def
  gsave
  newpath
  cf findfont cs scalefont dup
  /FontMatrix get 0 get /Ts exch def /FontInfo get dup
  /UnderlinePosition get Ts mul /To exch def
  /UnderlineThickness get Ts mul /Tt exch def
  ux uy To add cs 10 mul 26 idiv add moveto Tcx uy To add cs 10 mul 26 idiv add lineto
  Tt setlinewidth stroke
  grestore
} bd
/QT {
/Y22 exch store
/X22 exch store
/Y21 exch store
/X21 exch store
currentpoint
/Y21 load 2 mul add 3 div exch
/X21 load 2 mul add 3 div exch
/X21 load 2 mul /X22 load add 3 div
/Y21 load 2 mul /Y22 load add 3 div
/X22 load /Y22 load curveto
} bd
/SSPD {
dup length /d exch dict def
{
/v exch def
/k exch def
currentpagedevice k known {
/cpdv currentpagedevice k get def
v cpdv ne {
/upd false def
/nullv v type /nulltype eq def
/nullcpdv cpdv type /nulltype eq def
nullv nullcpdv or
{
/upd true def
} {
/sametype v type cpdv type eq def
sametype {
v type /arraytype eq {
/vlen v length def
/cpdvlen cpdv length def
vlen cpdvlen eq {
0 1 vlen 1 sub {
/i exch def
/obj v i get def
/cpdobj cpdv i get def
obj cpdobj ne {
/upd true def
exit
} if
} for
} {
/upd true def
} ifelse
} {
v type /dicttype eq {
v {
/dv exch def
/dk exch def
/cpddv cpdv dk get def
dv cpddv ne {
/upd true def
exit
} if
} forall
} {
/upd true def
} ifelse
} ifelse
} if
} ifelse
upd true eq {
d k v put
} if
} if
} if
} forall
d length 0 gt {
d setpagedevice
} if
} bd
/RE { % /NewFontName [NewEncodingArray] /FontName RE -
  findfont dup length dict begin
  {
    1 index /FID ne
    {def} {pop pop} ifelse
  } forall
  /Encoding exch def
  /FontName 1 index def
  currentdict definefont pop
  end
} bind def
%%EndResource
%%BeginResource: procset (Apache XML Graphics EPS ProcSet) 1.0 0
%%Version: 1.0 0
%%Copyright: (Copyright 2002-2003 The Apache Software Foundation. License terms: http://www.apache.org/licenses/LICENSE-2.0)
/BeginEPSF { %def
/b4_Inc_state save def         % Save state for cleanup
/dict_count countdictstack def % Count objects on dict stack
/op_count count 1 sub def      % Count objects on operand stack
userdict begin                 % Push userdict on dict stack
/showpage { } def              % Redefine showpage, { } = null proc
0 setgray 0 setlinecap         % Prepare graphics state
1 setlinewidth 0 setlinejoin
10 setmiterlimit [ ] 0 setdash newpath
/languagelevel where           % If level not equal to 1 then
{pop languagelevel             % set strokeadjust and
1 ne                           % overprint to their defaults.
{false setstrokeadjust false setoverprint
} if
} if
} bd
/EndEPSF { %def
count op_count sub {pop} repeat            % Clean up stacks
countdictstack dict_count sub {end} repeat
b4_Inc_state restore
} bd
%%EndResource
%FOPBeginFontDict
%%IncludeResource: font Courier-Oblique
%%IncludeResource: font Courier-BoldOblique
%%IncludeResource: font Courier-Bold
%%IncludeResource: font ZapfDingbats
%%IncludeResource: font Symbol
%%IncludeResource: font Helvetica
%%IncludeResource: font Helvetica-Oblique
%%IncludeResource: font Helvetica-Bold
%%IncludeResource: font Helvetica-BoldOblique
%%IncludeResource: font Times-Roman
%%IncludeResource: font Times-Italic
%%IncludeResource: font Times-Bold
%%IncludeResource: font Times-BoldItalic
%%IncludeResource: font Courier
%FOPEndFontDict
%%BeginResource: encoding WinAnsiEncoding
/WinAnsiEncoding [
/.notdef /.notdef /.notdef /.notdef /.notdef
/.notdef /.notdef /.notdef /.notdef /.notdef
/.notdef /.notdef /.notdef /.notdef /.notdef
/.notdef /.notdef /.notdef /.notdef /.notdef
/.notdef /.notdef /.notdef /.notdef /.notdef
/.notdef /.notdef /.notdef /.notdef /.notdef
/.notdef /.notdef /space /exclam /quotedbl
/numbersign /dollar /percent /ampersand /quotesingle
/parenleft /parenright /asterisk /plus /comma
/hyphen /period /slash /zero /one
/two /three /four /five /six
/seven /eight /nine /colon /semicolon
/less /equal /greater /question /at
/A /B /C /D /E
/F /G /H /I /J
/K /L /M /N /O
/P /Q /R /S /T
/U /V /W /X /Y
/Z /bracketleft /backslash /bracketright /asciicircum
/underscore /quoteleft /a /b /c
/d /e /f /g /h
/i /j /k /l /m
/n /o /p /q /r
/s /t /u /v /w
/x /y /z /braceleft /bar
/braceright /asciitilde /bullet /Euro /bullet
/quotesinglbase /florin /quotedblbase /ellipsis /dagger
/daggerdbl /circumflex /perthousand /Scaron /guilsinglleft
/OE /bullet /Zcaron /bullet /bullet
/quoteleft /quoteright /quotedblleft /quotedblright /bullet
/endash /emdash /asciitilde /trademark /scaron
/guilsinglright /oe /bullet /zcaron /Ydieresis
/space /exclamdown /cent /sterling /currency
/yen /brokenbar /section /dieresis /copyright
/ordfeminine /guillemotleft /logicalnot /sfthyphen /registered
/macron /degree /plusminus /twosuperior /threesuperior
/acute /mu /paragraph /middot /cedilla
/onesuperior /ordmasculine /guillemotright /onequarter /onehalf
/threequarters /questiondown /Agrave /Aacute /Acircumflex
/Atilde /Adieresis /Aring /AE /Ccedilla
/Egrave /Eacute /Ecircumflex /Edieresis /Igrave
/Iacute /Icircumflex /Idieresis /Eth /Ntilde
/Ograve /Oacute /Ocircumflex /Otilde /Odieresis
/multiply /Oslash /Ugrave /Uacute /Ucircumflex
/Udieresis /Yacute /Thorn /germandbls /agrave
/aacute /acircumflex /atilde /adieresis /aring
/ae /ccedilla /egrave /eacute /ecircumflex
/edieresis /igrave /iacute /icircumflex /idieresis
/eth /ntilde /ograve /oacute /ocircumflex
/otilde /odieresis /divide /oslash /ugrave
/uacute /ucircumflex /udieresis /yacute /thorn
/ydieresis
] def
%%EndResource
%FOPBeginFontReencode
/Courier-Oblique findfont
dup length dict begin
  {1 index /FID ne {def} {pop pop} ifelse} forall
  /Encoding WinAnsiEncoding def
  currentdict
end
/Courier-Oblique exch definefont pop
/Courier-BoldOblique findfont
dup length dict begin
  {1 index /FID ne {def} {pop pop} ifelse} forall
  /Encoding WinAnsiEncoding def
  currentdict
end
/Courier-BoldOblique exch definefont pop
/Courier-Bold findfont
dup length dict begin
  {1 index /FID ne {def} {pop pop} ifelse} forall
  /Encoding WinAnsiEncoding def
  currentdict
end
/Courier-Bold exch definefont pop
/Helvetica findfont
dup length dict begin
  {1 index /FID ne {def} {pop pop} ifelse} forall
  /Encoding WinAnsiEncoding def
  currentdict
end
/Helvetica exch definefont pop
/Helvetica-Oblique findfont
dup length dict begin
  {1 index /FID ne {def} {pop pop} ifelse} forall
  /Encoding WinAnsiEncoding def
  currentdict
end
/Helvetica-Oblique exch definefont pop
/Helvetica-Bold findfont
dup length dict begin
  {1 index /FID ne {def} {pop pop} ifelse} forall
  /Encoding WinAnsiEncoding def
  currentdict
end
/Helvetica-Bold exch definefont pop
/Helvetica-BoldOblique findfont
dup length dict begin
  {1 index /FID ne {def} {pop pop} ifelse} forall
  /Encoding WinAnsiEncoding def
  currentdict
end
/Helvetica-BoldOblique exch definefont pop
/Times-Roman findfont
dup length dict begin
  {1 index /FID ne {def} {pop pop} ifelse} forall
  /Encoding WinAnsiEncoding def
  currentdict
end
/Times-Roman exch definefont pop
/Times-Italic findfont
dup length dict begin
  {1 index /FID ne {def} {pop pop} ifelse} forall
  /Encoding WinAnsiEncoding def
  currentdict
end
/Times-Italic exch definefont pop
/Times-Bold findfont
dup length dict begin
  {1 index /FID ne {def} {pop pop} ifelse} forall
  /Encoding WinAnsiEncoding def
  currentdict
end
/Times-Bold exch definefont pop
/Times-BoldItalic findfont
dup length dict begin
  {1 index /FID ne {def} {pop pop} ifelse} forall
  /Encoding WinAnsiEncoding def
  currentdict
end
/Times-BoldItalic exch definefont pop
/Courier findfont
dup length dict begin
  {1 index /FID ne {def} {pop pop} ifelse} forall
  /Encoding WinAnsiEncoding def
  currentdict
end
/Courier exch definefont pop
%FOPEndFontReencode
%%EndProlog
%%Page: 1 1
%%PageBoundingBox: 0 0 420 315
%%BeginPageSetup
[1 0 0 -1 0 315] CT
%%EndPageSetup
GS
[0.6 0 0 0.6 0 0] CT
1 GC
N
0 0 700 525 re
f
GR
GS
[0.6 0 0 0.6 0 0] CT
1 GC
N
0 0 700 525 re
f
GR
GS
[0.6 0 0 0.6 0 0] CT
1 GC
N
99 188 M
634 188 L
634 53 L
99 53 L
cp
f
GR
GS
[0.6 0 0 0.6 0 0] CT
0.149 GC
2 setlinecap
1 LJ
0.833 LW
N
99 188 M
634 188 L
S
GR
GS
[0.6 0 0 0.6 0 0] CT
0.149 GC
2 setlinecap
1 LJ
0.833 LW
N
99 53 M
634 53 L
S
GR
GS
[0.6 0 0 0.6 0 0] CT
0.149 GC
2 setlinecap
1 LJ
0.833 LW
N
174.981 188 M
174.981 182.65 L
S
GR
GS
[0.6 0 0 0.6 0 0] CT
0.149 GC
2 setlinecap
1 LJ
0.833 LW
N
261.917 188 M
261.917 182.65 L
S
GR
GS
[0.6 0 0 0.6 0 0] CT
0.149 GC
2 setlinecap
1 LJ
0.833 LW
N
348.852 188 M
348.852 182.65 L
S
GR
GS
[0.6 0 0 0.6 0 0] CT
0.149 GC
2 setlinecap
1 LJ
0.833 LW
N
435.787 188 M
435.787 182.65 L
S
GR
GS
[0.6 0 0 0.6 0 0] CT
0.149 GC
2 setlinecap
1 LJ
0.833 LW
N
522.723 188 M
522.723 182.65 L
S
GR
GS
[0.6 0 0 0.6 0 0] CT
0.149 GC
2 setlinecap
1 LJ
0.833 LW
N
609.658 188 M
609.658 182.65 L
S
GR
GS
[0.6 0 0 0.6 0 0] CT
0.149 GC
2 setlinecap
1 LJ
0.833 LW
N
174.981 53 M
174.981 58.35 L
S
GR
GS
[0.6 0 0 0.6 0 0] CT
0.149 GC
2 setlinecap
1 LJ
0.833 LW
N
261.917 53 M
261.917 58.35 L
S
GR
GS
[0.6 0 0 0.6 0 0] CT
0.149 GC
2 setlinecap
1 LJ
0.833 LW
N
348.852 53 M
348.852 58.35 L
S
GR
GS
[0.6 0 0 0.6 0 0] CT
0.149 GC
2 setlinecap
1 LJ
0.833 LW
N
435.787 53 M
435.787 58.35 L
S
GR
GS
[0.6 0 0 0.6 0 0] CT
0.149 GC
2 setlinecap
1 LJ
0.833 LW
N
522.723 53 M
522.723 58.35 L
S
GR
GS
[0.6 0 0 0.6 0 0] CT
0.149 GC
2 setlinecap
1 LJ
0.833 LW
N
609.658 53 M
609.658 58.35 L
S
GR
GS
[0.6 0 0 0.6 104.98889 117.8] CT
0.149 GC
/Helvetica-Bold 25 F
GS
[1 0 0 1 0 0] CT
-17.5 26 moveto 
1 -1 scale
(0.5) t 
GR
GR
GS
[0.6 0 0 0.6 157.15009 117.8] CT
0.149 GC
/Helvetica-Bold 25 F
GS
[1 0 0 1 0 0] CT
-7 26 moveto 
1 -1 scale
(1) t 
GR
GR
GS
[0.6 0 0 0.6 209.31129 117.8] CT
0.149 GC
/Helvetica-Bold 25 F
GS
[1 0 0 1 0 0] CT
-17.5 26 moveto 
1 -1 scale
(1.5) t 
GR
GR
GS
[0.6 0 0 0.6 261.47247 117.8] CT
0.149 GC
/Helvetica-Bold 25 F
GS
[1 0 0 1 0 0] CT
-7 26 moveto 
1 -1 scale
(2) t 
GR
GR
GS
[0.6 0 0 0.6 313.63367 117.8] CT
0.149 GC
/Helvetica-Bold 25 F
GS
[1 0 0 1 0 0] CT
-17.5 26 moveto 
1 -1 scale
(2.5) t 
GR
GR
GS
[0.6 0 0 0.6 365.79485 117.8] CT
0.149 GC
/Helvetica-Bold 25 F
GS
[1 0 0 1 0 0] CT
-7 26 moveto 
1 -1 scale
(3) t 
GR
GR
GS
[0.6 0 0 0.6 219.90015 138] CT
0.149 GC
N
-47.631 23.412 M
-49.209 23.412 -49.92 22.248 QT
-50.631 21.084 -50.631 19.412 QT
-50.631 18.303 -50.428 17.241 QT
-50.225 16.178 -49.826 15.092 QT
-49.428 14.006 -48.904 13.053 QT
-48.381 12.1 -47.74 11.209 QT
-47.615 11.022 -47.412 11.022 QT
-47.24 11.022 -47.131 11.131 QT
-47.021 11.241 -47.021 11.397 QT
-47.021 11.553 -47.1 11.662 QT
-49.646 15.178 -49.646 18.147 QT
-49.646 19.428 -49.053 20.358 QT
-48.459 21.287 -47.24 21.287 QT
-46.193 21.287 -45.295 20.67 QT
-44.396 20.053 -43.74 19.1 QT
-43.74 18.6 -43.576 17.561 QT
-43.412 16.522 -43.045 15.709 QT
-42.678 14.897 -42.178 14.897 QT
-41.537 14.897 -41.537 15.647 QT
-41.537 16.084 -41.717 16.748 QT
-41.896 17.412 -42.123 17.983 QT
-42.35 18.553 -42.678 19.287 QT
-42.35 21.287 -40.678 21.287 QT
-39.709 21.287 -38.732 20.725 QT
-37.756 20.162 -37.006 19.248 QT
-36.256 18.334 -35.826 17.287 QT
-35.396 16.241 -35.396 15.287 QT
-35.396 14.444 -35.662 13.975 QT
-35.928 13.506 -36.365 12.983 QT
-36.803 12.459 -36.803 12.147 QT
-36.803 11.6 -36.334 11.147 QT
-35.865 10.694 -35.334 10.694 QT
-34.662 10.694 -34.373 11.319 QT
-34.084 11.944 -34.084 12.741 QT
-34.084 14.022 -34.592 15.975 QT
-35.1 17.928 -35.756 19.225 QT
-36.662 20.991 -38.021 22.201 QT
-39.381 23.412 -41.084 23.412 QT
-42.162 23.412 -42.826 22.764 QT
-43.49 22.116 -43.678 20.991 QT
-44.459 22.1 -45.459 22.756 QT
-46.459 23.412 -47.631 23.412 QT
cp
f
GR
GS
[0.6 0 0 0.6 219.90015 138] CT
0.149 GC
N
-29.605 30.1 M
-29.605 2.1 L
-25.777 2.1 L
-25.777 3.225 L
-28.48 3.225 L
-28.48 28.975 L
-25.777 28.975 L
-25.777 30.1 L
-29.605 30.1 L
cp
f
GR
GS
[0.6 0 0 0.6 219.90015 138] CT
0.149 GC
N
-23.122 22.616 M
-23.122 22.459 -23.091 22.381 QT
-20.997 14.022 L
-20.794 13.241 -20.794 12.647 QT
-20.794 11.444 -21.607 11.444 QT
-22.482 11.444 -22.911 12.491 QT
-23.341 13.537 -23.732 15.147 QT
-23.732 15.225 -23.817 15.272 QT
-23.903 15.319 -23.966 15.319 QT
-24.294 15.319 L
-24.388 15.319 -24.458 15.217 QT
-24.528 15.116 -24.528 15.037 QT
-24.232 13.819 -23.95 12.967 QT
-23.669 12.116 -23.075 11.42 QT
-22.482 10.725 -21.591 10.725 QT
-20.622 10.725 -19.888 11.287 QT
-19.153 11.85 -18.982 12.756 QT
-18.263 11.834 -17.357 11.28 QT
-16.45 10.725 -15.372 10.725 QT
-14.482 10.725 -13.802 11.248 QT
-13.122 11.772 -13.122 12.647 QT
-13.122 13.366 -13.567 13.889 QT
-14.013 14.412 -14.747 14.412 QT
-15.2 14.412 -15.505 14.131 QT
-15.81 13.85 -15.81 13.412 QT
-15.81 12.787 -15.364 12.303 QT
-14.919 11.819 -14.325 11.819 QT
-14.778 11.444 -15.419 11.444 QT
-16.622 11.444 -17.513 12.303 QT
-18.403 13.162 -19.107 14.475 QT
-21.107 22.491 L
-21.2 22.866 -21.536 23.139 QT
-21.872 23.412 -22.278 23.412 QT
-22.622 23.412 -22.872 23.194 QT
-23.122 22.975 -23.122 22.616 QT
cp
f
GR
GS
[0.6 0 0 0.6 219.90015 138] CT
0.149 GC
N
-7.233 23.412 M
-8.998 23.412 -10.022 22.076 QT
-11.045 20.741 -11.045 18.928 QT
-11.045 17.131 -10.115 15.209 QT
-9.186 13.287 -7.608 12.006 QT
-6.03 10.725 -4.201 10.725 QT
-3.373 10.725 -2.717 11.178 QT
-2.061 11.631 -1.686 12.412 QT
-1.373 11.287 -0.451 11.287 QT
-0.108 11.287 0.135 11.498 QT
0.377 11.709 0.377 12.069 QT
0.377 12.147 0.369 12.186 QT
0.361 12.225 0.345 12.287 QT
-1.608 20.1 L
-1.795 20.944 -1.795 21.475 QT
-1.795 22.678 -0.998 22.678 QT
-0.123 22.678 0.338 21.561 QT
0.799 20.444 1.111 18.991 QT
1.174 18.819 1.33 18.819 QT
1.674 18.819 L
1.783 18.819 1.853 18.912 QT
1.924 19.006 1.924 19.1 QT
1.424 21.053 0.845 22.233 QT
0.267 23.412 -1.045 23.412 QT
-1.983 23.412 -2.709 22.858 QT
-3.436 22.303 -3.623 21.397 QT
-5.42 23.412 -7.233 23.412 QT
cp
-7.217 22.678 M
-6.201 22.678 -5.248 21.92 QT
-4.295 21.162 -3.623 20.131 QT
-3.592 20.1 -3.592 20.053 QT
-2.092 13.959 L
-2.061 13.881 L
-2.217 12.881 -2.772 12.162 QT
-3.326 11.444 -4.28 11.444 QT
-5.217 11.444 -6.03 12.217 QT
-6.842 12.991 -7.405 14.053 QT
-7.951 15.162 -8.451 17.123 QT
-8.951 19.084 -8.951 20.162 QT
-8.951 21.131 -8.53 21.905 QT
-8.108 22.678 -7.217 22.678 QT
cp
f
GR
GS
[0.6 0 0 0.6 219.90015 138] CT
0.149 GC
N
7.304 23.412 M
5.538 23.412 4.514 22.076 QT
3.491 20.741 3.491 18.928 QT
3.491 17.131 4.421 15.209 QT
5.35 13.287 6.929 12.006 QT
8.507 10.725 10.335 10.725 QT
11.147 10.725 11.811 11.186 QT
12.475 11.647 12.85 12.412 QT
14.413 6.162 L
14.522 5.678 14.554 5.412 QT
14.554 4.959 12.741 4.959 QT
12.444 4.959 12.444 4.584 QT
12.46 4.522 12.507 4.342 QT
12.554 4.162 12.632 4.069 QT
12.71 3.975 12.85 3.975 QT
16.616 3.678 L
16.96 3.678 16.96 4.022 QT
12.929 20.131 L
12.741 20.6 12.741 21.475 QT
12.741 22.678 13.538 22.678 QT
14.413 22.678 14.874 21.561 QT
15.335 20.444 15.647 18.991 QT
15.71 18.819 15.866 18.819 QT
16.21 18.819 L
16.319 18.819 16.389 18.912 QT
16.46 19.006 16.46 19.1 QT
15.96 21.053 15.382 22.233 QT
14.804 23.412 13.491 23.412 QT
12.554 23.412 11.827 22.858 QT
11.1 22.303 10.913 21.397 QT
9.116 23.412 7.304 23.412 QT
cp
7.319 22.678 M
8.335 22.678 9.288 21.92 QT
10.241 21.162 10.913 20.131 QT
10.944 20.1 10.944 20.022 QT
12.475 13.85 L
12.319 12.866 11.757 12.155 QT
11.194 11.444 10.257 11.444 QT
9.319 11.444 8.507 12.217 QT
7.694 12.991 7.132 14.053 QT
6.585 15.162 6.085 17.123 QT
5.585 19.084 5.585 20.162 QT
5.585 21.131 6.007 21.905 QT
6.429 22.678 7.319 22.678 QT
cp
f
GR
GS
[0.6 0 0 0.6 219.90015 138] CT
0.149 GC
N
18.32 29.537 M
18.32 29.459 18.336 29.428 QT
28.07 2.444 L
28.133 2.272 28.265 2.186 QT
28.398 2.1 28.586 2.1 QT
28.836 2.1 28.992 2.248 QT
29.148 2.397 29.148 2.662 QT
29.148 2.772 L
19.414 29.756 L
19.242 30.1 18.883 30.1 QT
18.648 30.1 18.484 29.936 QT
18.32 29.772 18.32 29.537 QT
cp
f
GR
GS
[0.6 0 0 0.6 219.90015 138] CT
0.149 GC
N
32.929 21.397 M
33.679 22.678 35.945 22.678 QT
36.929 22.678 37.82 22.342 QT
38.711 22.006 39.289 21.334 QT
39.867 20.662 39.867 19.709 QT
39.867 18.991 39.351 18.522 QT
38.836 18.053 38.086 17.897 QT
36.57 17.584 L
35.523 17.334 34.851 16.623 QT
34.179 15.912 34.179 14.897 QT
34.179 13.647 34.859 12.694 QT
35.539 11.741 36.648 11.233 QT
37.758 10.725 38.945 10.725 QT
40.211 10.725 41.219 11.334 QT
42.226 11.944 42.226 13.131 QT
42.226 13.772 41.859 14.264 QT
41.492 14.756 40.851 14.756 QT
40.492 14.756 40.226 14.522 QT
39.961 14.287 39.961 13.912 QT
39.961 13.584 40.14 13.28 QT
40.32 12.975 40.633 12.787 QT
40.945 12.6 41.273 12.6 QT
41.023 11.991 40.344 11.717 QT
39.664 11.444 38.883 11.444 QT
38.179 11.444 37.469 11.733 QT
36.758 12.022 36.328 12.576 QT
35.898 13.131 35.898 13.881 QT
35.898 14.397 36.25 14.78 QT
36.601 15.162 37.117 15.319 QT
38.758 15.647 L
39.523 15.819 40.179 16.233 QT
40.836 16.647 41.211 17.28 QT
41.586 17.912 41.586 18.741 QT
41.586 19.772 41 20.787 QT
40.414 21.803 39.57 22.397 QT
38.086 23.412 35.914 23.412 QT
34.429 23.412 33.187 22.733 QT
31.945 22.053 31.945 20.694 QT
31.945 19.928 32.39 19.358 QT
32.836 18.787 33.601 18.787 QT
34.054 18.787 34.359 19.061 QT
34.664 19.334 34.664 19.787 QT
34.664 20.428 34.187 20.912 QT
33.711 21.397 33.07 21.397 QT
32.929 21.397 L
cp
f
GR
GS
[0.6 0 0 0.6 219.90015 138] CT
0.149 GC
N
43.992 30.1 M
43.992 28.975 L
46.726 28.975 L
46.726 3.225 L
43.992 3.225 L
43.992 2.1 L
47.836 2.1 L
47.836 30.1 L
43.992 30.1 L
cp
f
GR
GS
[0.6 0 0 0.6 0 0] CT
0.149 GC
2 setlinecap
1 LJ
0.833 LW
N
99 188 M
99 53 L
S
GR
GS
[0.6 0 0 0.6 0 0] CT
0.149 GC
2 setlinecap
1 LJ
0.833 LW
N
634 188 M
634 53 L
S
GR
GS
[0.6 0 0 0.6 0 0] CT
0.149 GC
2 setlinecap
1 LJ
0.833 LW
N
99 185.051 M
104.35 185.051 L
S
GR
GS
[0.6 0 0 0.6 0 0] CT
0.149 GC
2 setlinecap
1 LJ
0.833 LW
N
99 147.322 M
104.35 147.322 L
S
GR
GS
[0.6 0 0 0.6 0 0] CT
0.149 GC
2 setlinecap
1 LJ
0.833 LW
N
99 109.593 M
104.35 109.593 L
S
GR
GS
[0.6 0 0 0.6 0 0] CT
0.149 GC
2 setlinecap
1 LJ
0.833 LW
N
99 71.864 M
104.35 71.864 L
S
GR
GS
[0.6 0 0 0.6 0 0] CT
0.149 GC
2 setlinecap
1 LJ
0.833 LW
N
634 185.051 M
628.65 185.051 L
S
GR
GS
[0.6 0 0 0.6 0 0] CT
0.149 GC
2 setlinecap
1 LJ
0.833 LW
N
634 147.322 M
628.65 147.322 L
S
GR
GS
[0.6 0 0 0.6 0 0] CT
0.149 GC
2 setlinecap
1 LJ
0.833 LW
N
634 109.593 M
628.65 109.593 L
S
GR
GS
[0.6 0 0 0.6 0 0] CT
0.149 GC
2 setlinecap
1 LJ
0.833 LW
N
634 71.864 M
628.65 71.864 L
S
GR
GS
[0.6 0 0 0.6 54.4 111.03076] CT
0.149 GC
/Helvetica-Bold 25 F
GS
[1 0 0 1 0 0] CT
-37 10 moveto 
1 -1 scale
(-20) t 
GR
GR
GS
[0.6 0 0 0.6 54.4 88.39341] CT
0.149 GC
/Helvetica-Bold 25 F
GS
[1 0 0 1 0 0] CT
-14 10 moveto 
1 -1 scale
(0) t 
GR
GR
GS
[0.6 0 0 0.6 54.4 65.75604] CT
0.149 GC
/Helvetica-Bold 25 F
GS
[1 0 0 1 0 0] CT
-28 10 moveto 
1 -1 scale
(20) t 
GR
GR
GS
[0.6 0 0 0.6 54.4 43.11868] CT
0.149 GC
/Helvetica-Bold 25 F
GS
[1 0 0 1 0 0] CT
-28 10 moveto 
1 -1 scale
(40) t 
GR
GR
GS
[0 -0.6 0.6 0 25.2 103.8] CT
0.149 GC
/Helvetica-Bold 27.5 F
GS
[1 0 0 1 0 0] CT
0 0 moveto 
1 -1 scale
(QTF-/) t 
GR
GR
GS
[0 -0.6 0.6 0 25.2 60.6] CT
0.149 GC
N
1.781 5.266 M
1.781 5.094 1.813 5.047 QT
4.578 -6.141 L
4.984 -7.641 5.945 -9.086 QT
6.906 -10.531 8.273 -11.453 QT
9.641 -12.375 11.156 -12.375 QT
13.375 -12.375 14.281 -11.742 QT
15.188 -11.109 15.648 -10.07 QT
16.109 -9.031 16.109 -7.813 QT
16.109 -6.453 15.555 -5.008 QT
15 -3.563 14.023 -2.359 QT
13.047 -1.156 11.773 -0.422 QT
10.5 0.313 8.109 0.313 QT
7.297 0.313 6.57 -0.172 QT
5.844 -0.656 5.844 -0.656 QT
4.781 5.156 L
4.688 5.547 4.359 5.797 QT
4.031 6.047 2.625 6.047 QT
2.281 6.047 2.031 5.836 QT
1.781 5.625 1.781 5.266 QT
cp
8.203 -0.422 M
9.656 -0.422 10.758 -1.945 QT
11.859 -3.469 12.438 -5.531 QT
13.016 -7.594 13.016 -9.016 QT
13.016 -10.078 12.555 -10.867 QT
12.094 -11.656 11.109 -11.656 QT
10.891 -11.656 9.961 -10.727 QT
9.031 -9.797 8.469 -8.555 QT
7.906 -7.313 7.547 -5.969 QT
6.781 -2.828 L
6.969 -1.813 7.586 -1.117 QT
8.203 -0.422 8.203 -0.422 QT
cp
f
GR
GS
[0 -0.6 0.6 0 25.2 51] CT
0.149 GC
/Helvetica-Bold 27.5 F
GS
[1 0 0 1 0 0] CT
0 0 moveto 
1 -1 scale
(g) t 
GR
GR
GS
[0.6 0 0 0.6 166.8 25.8] CT
/Helvetica-Bold 25 F
GS
[1 0 0 1 0 0] CT
0 0 moveto 
1 -1 scale
(QTF- for ) t 
GR
GR
GS
[0.6 0 0 0.6 230.4 25.8] CT
N
1.359 0 M
1.141 0 1.141 -0.203 QT
1.156 -0.219 1.164 -0.234 QT
1.172 -0.25 1.172 -0.281 QT
9.781 -17.625 L
9.891 -17.891 10.234 -17.891 QT
10.578 -17.891 L
11.906 -17.891 12.016 -17.625 QT
20.625 -0.281 L
20.641 -0.25 20.648 -0.234 QT
20.656 -0.219 20.656 -0.203 QT
20.656 0 19.453 0 QT
1.359 0 L
cp
4 -2 M
16.172 -2 L
9.984 -14.453 L
4 -2 L
cp
f
GR
GS
[0.6 0 0 0.6 244.2 25.8] CT
/Helvetica-Bold 25 F
GS
[1 0 0 1 0 0] CT
0 0 moveto 
1 -1 scale
(w=0) t 
GR
GR
GS
[0.6 0 0 0.6 0 0] CT
0 0 1 RC
1 LJ
3.333 LW
N
99 147.334 M
109.954 147.391 L
120.734 147.527 L
131.688 147.833 L
142.642 148.696 L
153.595 143.885 L
164.549 147.785 L
175.329 147.259 L
186.283 143.24 L
197.237 132.94 L
208.191 114.307 L
219.145 91.942 L
229.925 78.742 L
240.878 80.778 L
251.832 91.978 L
262.786 103.593 L
273.74 110.69 L
284.52 116.251 L
295.474 125.068 L
306.428 141.052 L
317.382 164.057 L
328.335 149.998 L
339.115 151.529 L
350.069 161.698 L
361.023 171.468 L
371.977 168.321 L
382.931 160.993 L
393.711 162.291 L
404.665 155.006 L
415.618 145.082 L
426.572 141.455 L
437.526 137.327 L
448.306 136.463 L
459.26 132.723 L
470.214 133.419 L
481.168 133.913 L
492.122 136.648 L
502.902 142.118 L
513.855 150.673 L
524.809 150.265 L
535.763 153.28 L
546.717 152.984 L
557.497 151.953 L
568.451 146.08 L
579.405 148.474 L
590.358 144.589 L
601.312 144.556 L
612.092 144.881 L
623.046 145.513 L
634 146.621 L
S
GR
GS
[0.6 0 0 0.6 0 0] CT
0 0 1 RC
[12 3 6 3] 0 setdash
2 LJ
3.333 LW
N
99 147.317 M
109.954 147.305 L
120.734 147.272 L
131.688 147.138 L
142.642 146.08 L
153.595 157.295 L
164.549 153.501 L
175.329 156.03 L
186.283 160.74 L
197.237 167.687 L
208.191 176.372 L
219.145 183.872 L
229.925 185.311 L
240.878 180.585 L
251.832 175.04 L
262.786 173.616 L
273.74 176.507 L
284.52 177.58 L
295.474 176.336 L
306.428 176.574 L
317.382 164.144 L
328.335 146.838 L
339.115 146.205 L
350.069 151.129 L
361.023 157.101 L
371.977 160.877 L
382.931 161.812 L
393.711 165.271 L
404.665 160.346 L
415.618 156.934 L
426.572 153.45 L
437.526 148.479 L
448.306 145.908 L
459.26 142.339 L
470.214 141.722 L
481.168 141.387 L
492.122 139.842 L
502.902 141.036 L
513.855 142.213 L
524.809 138.948 L
535.763 147.314 L
546.717 149.85 L
557.497 149.579 L
568.451 146.535 L
579.405 146.726 L
590.358 145.99 L
601.312 143.82 L
612.092 143.843 L
623.046 143.522 L
634 145.761 L
S
GR
GS
[0.6 0 0 0.6 0 0] CT
1 0 0 RC
[12 12] 0 setdash
2 LJ
3.333 LW
N
99 147.334 M
109.954 147.387 L
120.734 147.506 L
131.688 147.753 L
142.642 148.32 L
153.595 145.973 L
164.549 148.543 L
175.329 147.886 L
186.283 143.777 L
197.237 133.283 L
208.191 114.266 L
219.145 90.793 L
229.925 75.57 L
240.878 75.5 L
251.832 85.378 L
262.786 96.473 L
273.74 103.401 L
284.52 108.183 L
295.474 115.605 L
306.428 128.411 L
317.382 150.23 L
328.335 139.885 L
339.115 138.724 L
350.069 146.782 L
361.023 155.702 L
371.977 156.747 L
382.931 153.922 L
393.711 157.198 L
404.665 153.473 L
415.618 144.493 L
426.572 143.5 L
437.526 139.984 L
448.306 140.461 L
459.26 139.146 L
470.214 138.767 L
481.168 140.312 L
492.122 142.933 L
502.902 146.063 L
513.855 151.335 L
524.809 151.156 L
535.763 154.91 L
546.717 154.152 L
557.497 154.928 L
568.451 149.451 L
579.405 147.483 L
590.358 145.902 L
601.312 143.679 L
612.092 142.627 L
623.046 142.619 L
634 143.712 L
S
GR
GS
[0.6 0 0 0.6 0 0] CT
1 0 0 RC
[3 3] 0 setdash
2 LJ
3.333 LW
N
99 147.322 M
109.954 147.319 L
120.734 147.305 L
131.688 147.22 L
142.642 146.35 L
153.595 156.76 L
164.549 153.586 L
175.329 156.417 L
186.283 161.481 L
197.237 168.829 L
208.191 177.892 L
219.145 185.867 L
229.925 188 L
240.878 183.926 L
251.832 178.562 L
262.786 176.77 L
273.74 179.589 L
284.52 181.839 L
295.474 181.942 L
306.428 182.997 L
317.382 174.321 L
328.335 152.703 L
339.115 150.948 L
350.069 155.904 L
361.023 161.157 L
371.977 164.32 L
382.931 166.109 L
393.711 169.941 L
404.665 169.041 L
415.618 164.545 L
426.572 162.145 L
437.526 159.307 L
448.306 156.144 L
459.26 153.228 L
470.214 149.667 L
481.168 149.794 L
492.122 147.285 L
502.902 146.431 L
513.855 146.668 L
524.809 143.698 L
535.763 147.303 L
546.717 149.318 L
557.497 149.982 L
568.451 148.211 L
579.405 147.663 L
590.358 147.334 L
601.312 144.698 L
612.092 142.164 L
623.046 143.348 L
634 143.871 L
S
GR
GS
[0.6 0 0 0.6 0 0] CT
1 GC
N
99 437 M
634 437 L
634 302 L
99 302 L
cp
f
GR
GS
[0.6 0 0 0.6 0 0] CT
0.149 GC
2 setlinecap
1 LJ
0.833 LW
N
99 437 M
634 437 L
S
GR
GS
[0.6 0 0 0.6 0 0] CT
0.149 GC
2 setlinecap
1 LJ
0.833 LW
N
99 302 M
634 302 L
S
GR
GS
[0.6 0 0 0.6 0 0] CT
0.149 GC
2 setlinecap
1 LJ
0.833 LW
N
168.283 437 M
168.283 431.65 L
S
GR
GS
[0.6 0 0 0.6 0 0] CT
0.149 GC
2 setlinecap
1 LJ
0.833 LW
N
260.908 437 M
260.908 431.65 L
S
GR
GS
[0.6 0 0 0.6 0 0] CT
0.149 GC
2 setlinecap
1 LJ
0.833 LW
N
353.533 437 M
353.533 431.65 L
S
GR
GS
[0.6 0 0 0.6 0 0] CT
0.149 GC
2 setlinecap
1 LJ
0.833 LW
N
446.157 437 M
446.157 431.65 L
S
GR
GS
[0.6 0 0 0.6 0 0] CT
0.149 GC
2 setlinecap
1 LJ
0.833 LW
N
538.782 437 M
538.782 431.65 L
S
GR
GS
[0.6 0 0 0.6 0 0] CT
0.149 GC
2 setlinecap
1 LJ
0.833 LW
N
631.406 437 M
631.406 431.65 L
S
GR
GS
[0.6 0 0 0.6 0 0] CT
0.149 GC
2 setlinecap
1 LJ
0.833 LW
N
168.283 302 M
168.283 307.35 L
S
GR
GS
[0.6 0 0 0.6 0 0] CT
0.149 GC
2 setlinecap
1 LJ
0.833 LW
N
260.908 302 M
260.908 307.35 L
S
GR
GS
[0.6 0 0 0.6 0 0] CT
0.149 GC
2 setlinecap
1 LJ
0.833 LW
N
353.533 302 M
353.533 307.35 L
S
GR
GS
[0.6 0 0 0.6 0 0] CT
0.149 GC
2 setlinecap
1 LJ
0.833 LW
N
446.157 302 M
446.157 307.35 L
S
GR
GS
[0.6 0 0 0.6 0 0] CT
0.149 GC
2 setlinecap
1 LJ
0.833 LW
N
538.782 302 M
538.782 307.35 L
S
GR
GS
[0.6 0 0 0.6 0 0] CT
0.149 GC
2 setlinecap
1 LJ
0.833 LW
N
631.406 302 M
631.406 307.35 L
S
GR
GS
[0.6 0 0 0.6 100.96994 267.19999] CT
0.149 GC
/Helvetica-Bold 25 F
GS
[1 0 0 1 0 0] CT
-17.5 26 moveto 
1 -1 scale
(0.5) t 
GR
GR
GS
[0.6 0 0 0.6 156.54474 267.19999] CT
0.149 GC
/Helvetica-Bold 25 F
GS
[1 0 0 1 0 0] CT
-7 26 moveto 
1 -1 scale
(1) t 
GR
GR
GS
[0.6 0 0 0.6 212.11954 267.19999] CT
0.149 GC
/Helvetica-Bold 25 F
GS
[1 0 0 1 0 0] CT
-17.5 26 moveto 
1 -1 scale
(1.5) t 
GR
GR
GS
[0.6 0 0 0.6 267.69432 267.19999] CT
0.149 GC
/Helvetica-Bold 25 F
GS
[1 0 0 1 0 0] CT
-7 26 moveto 
1 -1 scale
(2) t 
GR
GR
GS
[0.6 0 0 0.6 323.26912 267.19999] CT
0.149 GC
/Helvetica-Bold 25 F
GS
[1 0 0 1 0 0] CT
-17.5 26 moveto 
1 -1 scale
(2.5) t 
GR
GR
GS
[0.6 0 0 0.6 378.8439 267.19999] CT
0.149 GC
/Helvetica-Bold 25 F
GS
[1 0 0 1 0 0] CT
-7 26 moveto 
1 -1 scale
(3) t 
GR
GR
GS
[0.6 0 0 0.6 219.90015 287.4] CT
0.149 GC
N
/f-1480514271{-47.631 23.412 M
-49.209 23.412 -49.92 22.248 QT
-50.631 21.084 -50.631 19.412 QT
-50.631 18.303 -50.428 17.241 QT
-50.225 16.178 -49.826 15.092 QT
-49.428 14.006 -48.904 13.053 QT
-48.381 12.1 -47.74 11.209 QT
-47.615 11.022 -47.412 11.022 QT
-47.24 11.022 -47.131 11.131 QT
-47.021 11.241 -47.021 11.397 QT
-47.021 11.553 -47.1 11.662 QT
-49.646 15.178 -49.646 18.147 QT
-49.646 19.428 -49.053 20.358 QT
-48.459 21.287 -47.24 21.287 QT
-46.193 21.287 -45.295 20.67 QT
-44.396 20.053 -43.74 19.1 QT
-43.74 18.6 -43.576 17.561 QT
-43.412 16.522 -43.045 15.709 QT
-42.678 14.897 -42.178 14.897 QT
-41.537 14.897 -41.537 15.647 QT
-41.537 16.084 -41.717 16.748 QT
-41.896 17.412 -42.123 17.983 QT
-42.35 18.553 -42.678 19.287 QT
-42.35 21.287 -40.678 21.287 QT
-39.709 21.287 -38.732 20.725 QT
-37.756 20.162 -37.006 19.248 QT
-36.256 18.334 -35.826 17.287 QT
-35.396 16.241 -35.396 15.287 QT
-35.396 14.444 -35.662 13.975 QT
-35.928 13.506 -36.365 12.983 QT
-36.803 12.459 -36.803 12.147 QT
-36.803 11.6 -36.334 11.147 QT
-35.865 10.694 -35.334 10.694 QT
-34.662 10.694 -34.373 11.319 QT
-34.084 11.944 -34.084 12.741 QT
-34.084 14.022 -34.592 15.975 QT
-35.1 17.928 -35.756 19.225 QT
-36.662 20.991 -38.021 22.201 QT
-39.381 23.412 -41.084 23.412 QT
-42.162 23.412 -42.826 22.764 QT
-43.49 22.116 -43.678 20.991 QT
-44.459 22.1 -45.459 22.756 QT
-46.459 23.412 -47.631 23.412 QT
cp}def
f-1480514271
f
GR
GS
[0.6 0 0 0.6 219.90015 287.4] CT
0.149 GC
N
/f-911220341{-29.605 30.1 M
-29.605 2.1 L
-25.777 2.1 L
-25.777 3.225 L
-28.48 3.225 L
-28.48 28.975 L
-25.777 28.975 L
-25.777 30.1 L
-29.605 30.1 L
cp}def
f-911220341
f
GR
GS
[0.6 0 0 0.6 219.90015 287.4] CT
0.149 GC
N
/f-552804661{-23.122 22.616 M
-23.122 22.459 -23.091 22.381 QT
-20.997 14.022 L
-20.794 13.241 -20.794 12.647 QT
-20.794 11.444 -21.607 11.444 QT
-22.482 11.444 -22.911 12.491 QT
-23.341 13.537 -23.732 15.147 QT
-23.732 15.225 -23.817 15.272 QT
-23.903 15.319 -23.966 15.319 QT
-24.294 15.319 L
-24.388 15.319 -24.458 15.217 QT
-24.528 15.116 -24.528 15.037 QT
-24.232 13.819 -23.95 12.967 QT
-23.669 12.116 -23.075 11.42 QT
-22.482 10.725 -21.591 10.725 QT
-20.622 10.725 -19.888 11.287 QT
-19.153 11.85 -18.982 12.756 QT
-18.263 11.834 -17.357 11.28 QT
-16.45 10.725 -15.372 10.725 QT
-14.482 10.725 -13.802 11.248 QT
-13.122 11.772 -13.122 12.647 QT
-13.122 13.366 -13.567 13.889 QT
-14.013 14.412 -14.747 14.412 QT
-15.2 14.412 -15.505 14.131 QT
-15.81 13.85 -15.81 13.412 QT
-15.81 12.787 -15.364 12.303 QT
-14.919 11.819 -14.325 11.819 QT
-14.778 11.444 -15.419 11.444 QT
-16.622 11.444 -17.513 12.303 QT
-18.403 13.162 -19.107 14.475 QT
-21.107 22.491 L
-21.2 22.866 -21.536 23.139 QT
-21.872 23.412 -22.278 23.412 QT
-22.622 23.412 -22.872 23.194 QT
-23.122 22.975 -23.122 22.616 QT
cp}def
f-552804661
f
GR
GS
[0.6 0 0 0.6 219.90015 287.4] CT
0.149 GC
N
/f663259062{-7.233 23.412 M
-8.998 23.412 -10.022 22.076 QT
-11.045 20.741 -11.045 18.928 QT
-11.045 17.131 -10.115 15.209 QT
-9.186 13.287 -7.608 12.006 QT
-6.03 10.725 -4.201 10.725 QT
-3.373 10.725 -2.717 11.178 QT
-2.061 11.631 -1.686 12.412 QT
-1.373 11.287 -0.451 11.287 QT
-0.108 11.287 0.135 11.498 QT
0.377 11.709 0.377 12.069 QT
0.377 12.147 0.369 12.186 QT
0.361 12.225 0.345 12.287 QT
-1.608 20.1 L
-1.795 20.944 -1.795 21.475 QT
-1.795 22.678 -0.998 22.678 QT
-0.123 22.678 0.338 21.561 QT
0.799 20.444 1.111 18.991 QT
1.174 18.819 1.33 18.819 QT
1.674 18.819 L
1.783 18.819 1.853 18.912 QT
1.924 19.006 1.924 19.1 QT
1.424 21.053 0.845 22.233 QT
0.267 23.412 -1.045 23.412 QT
-1.983 23.412 -2.709 22.858 QT
-3.436 22.303 -3.623 21.397 QT
-5.42 23.412 -7.233 23.412 QT
cp
-7.217 22.678 M
-6.201 22.678 -5.248 21.92 QT
-4.295 21.162 -3.623 20.131 QT
-3.592 20.1 -3.592 20.053 QT
-2.092 13.959 L
-2.061 13.881 L
-2.217 12.881 -2.772 12.162 QT
-3.326 11.444 -4.28 11.444 QT
-5.217 11.444 -6.03 12.217 QT
-6.842 12.991 -7.405 14.053 QT
-7.951 15.162 -8.451 17.123 QT
-8.951 19.084 -8.951 20.162 QT
-8.951 21.131 -8.53 21.905 QT
-8.108 22.678 -7.217 22.678 QT
cp}def
f663259062
f
GR
GS
[0.6 0 0 0.6 219.90015 287.4] CT
0.149 GC
N
/f-1854391993{7.304 23.412 M
5.538 23.412 4.514 22.076 QT
3.491 20.741 3.491 18.928 QT
3.491 17.131 4.421 15.209 QT
5.35 13.287 6.929 12.006 QT
8.507 10.725 10.335 10.725 QT
11.147 10.725 11.811 11.186 QT
12.475 11.647 12.85 12.412 QT
14.413 6.162 L
14.522 5.678 14.554 5.412 QT
14.554 4.959 12.741 4.959 QT
12.444 4.959 12.444 4.584 QT
12.46 4.522 12.507 4.342 QT
12.554 4.162 12.632 4.069 QT
12.71 3.975 12.85 3.975 QT
16.616 3.678 L
16.96 3.678 16.96 4.022 QT
12.929 20.131 L
12.741 20.6 12.741 21.475 QT
12.741 22.678 13.538 22.678 QT
14.413 22.678 14.874 21.561 QT
15.335 20.444 15.647 18.991 QT
15.71 18.819 15.866 18.819 QT
16.21 18.819 L
16.319 18.819 16.389 18.912 QT
16.46 19.006 16.46 19.1 QT
15.96 21.053 15.382 22.233 QT
14.804 23.412 13.491 23.412 QT
12.554 23.412 11.827 22.858 QT
11.1 22.303 10.913 21.397 QT
9.116 23.412 7.304 23.412 QT
cp
7.319 22.678 M
8.335 22.678 9.288 21.92 QT
10.241 21.162 10.913 20.131 QT
10.944 20.1 10.944 20.022 QT
12.475 13.85 L
12.319 12.866 11.757 12.155 QT
11.194 11.444 10.257 11.444 QT
9.319 11.444 8.507 12.217 QT
7.694 12.991 7.132 14.053 QT
6.585 15.162 6.085 17.123 QT
5.585 19.084 5.585 20.162 QT
5.585 21.131 6.007 21.905 QT
6.429 22.678 7.319 22.678 QT
cp}def
f-1854391993
f
GR
GS
[0.6 0 0 0.6 219.90015 287.4] CT
0.149 GC
N
/f1477946294{18.32 29.537 M
18.32 29.459 18.336 29.428 QT
28.07 2.444 L
28.133 2.272 28.265 2.186 QT
28.398 2.1 28.586 2.1 QT
28.836 2.1 28.992 2.248 QT
29.148 2.397 29.148 2.662 QT
29.148 2.772 L
19.414 29.756 L
19.242 30.1 18.883 30.1 QT
18.648 30.1 18.484 29.936 QT
18.32 29.772 18.32 29.537 QT
cp}def
f1477946294
f
GR
GS
[0.6 0 0 0.6 219.90015 287.4] CT
0.149 GC
N
/f-530401850{32.929 21.397 M
33.679 22.678 35.945 22.678 QT
36.929 22.678 37.82 22.342 QT
38.711 22.006 39.289 21.334 QT
39.867 20.662 39.867 19.709 QT
39.867 18.991 39.351 18.522 QT
38.836 18.053 38.086 17.897 QT
36.57 17.584 L
35.523 17.334 34.851 16.623 QT
34.179 15.912 34.179 14.897 QT
34.179 13.647 34.859 12.694 QT
35.539 11.741 36.648 11.233 QT
37.758 10.725 38.945 10.725 QT
40.211 10.725 41.219 11.334 QT
42.226 11.944 42.226 13.131 QT
42.226 13.772 41.859 14.264 QT
41.492 14.756 40.851 14.756 QT
40.492 14.756 40.226 14.522 QT
39.961 14.287 39.961 13.912 QT
39.961 13.584 40.14 13.28 QT
40.32 12.975 40.633 12.787 QT
40.945 12.6 41.273 12.6 QT
41.023 11.991 40.344 11.717 QT
39.664 11.444 38.883 11.444 QT
38.179 11.444 37.469 11.733 QT
36.758 12.022 36.328 12.576 QT
35.898 13.131 35.898 13.881 QT
35.898 14.397 36.25 14.78 QT
36.601 15.162 37.117 15.319 QT
38.758 15.647 L
39.523 15.819 40.179 16.233 QT
40.836 16.647 41.211 17.28 QT
41.586 17.912 41.586 18.741 QT
41.586 19.772 41 20.787 QT
40.414 21.803 39.57 22.397 QT
38.086 23.412 35.914 23.412 QT
34.429 23.412 33.187 22.733 QT
31.945 22.053 31.945 20.694 QT
31.945 19.928 32.39 19.358 QT
32.836 18.787 33.601 18.787 QT
34.054 18.787 34.359 19.061 QT
34.664 19.334 34.664 19.787 QT
34.664 20.428 34.187 20.912 QT
33.711 21.397 33.07 21.397 QT
32.929 21.397 L
cp}def
f-530401850
f
GR
GS
[0.6 0 0 0.6 219.90015 287.4] CT
0.149 GC
N
/f-1848120821{43.992 30.1 M
43.992 28.975 L
46.726 28.975 L
46.726 3.225 L
43.992 3.225 L
43.992 2.1 L
47.836 2.1 L
47.836 30.1 L
43.992 30.1 L
cp}def
f-1848120821
f
GR
GS
[0.6 0 0 0.6 0 0] CT
0.149 GC
2 setlinecap
1 LJ
0.833 LW
N
99 437 M
99 302 L
S
GR
GS
[0.6 0 0 0.6 0 0] CT
0.149 GC
2 setlinecap
1 LJ
0.833 LW
N
634 437 M
634 302 L
S
GR
GS
[0.6 0 0 0.6 0 0] CT
0.149 GC
2 setlinecap
1 LJ
0.833 LW
N
99 416.917 M
104.35 416.917 L
S
GR
GS
[0.6 0 0 0.6 0 0] CT
0.149 GC
2 setlinecap
1 LJ
0.833 LW
N
99 371.688 M
104.35 371.688 L
S
GR
GS
[0.6 0 0 0.6 0 0] CT
0.149 GC
2 setlinecap
1 LJ
0.833 LW
N
99 326.459 M
104.35 326.459 L
S
GR
GS
[0.6 0 0 0.6 0 0] CT
0.149 GC
2 setlinecap
1 LJ
0.833 LW
N
634 416.917 M
628.65 416.917 L
S
GR
GS
[0.6 0 0 0.6 0 0] CT
0.149 GC
2 setlinecap
1 LJ
0.833 LW
N
634 371.688 M
628.65 371.688 L
S
GR
GS
[0.6 0 0 0.6 0 0] CT
0.149 GC
2 setlinecap
1 LJ
0.833 LW
N
634 326.459 M
628.65 326.459 L
S
GR
GS
[0.6 0 0 0.6 54.4 250.15047] CT
0.149 GC
/Helvetica-Bold 25 F
GS
[1 0 0 1 0 0] CT
-51 10 moveto 
1 -1 scale
(-100) t 
GR
GR
GS
[0.6 0 0 0.6 54.4 223.01287] CT
0.149 GC
/Helvetica-Bold 25 F
GS
[1 0 0 1 0 0] CT
-37 10 moveto 
1 -1 scale
(-50) t 
GR
GR
GS
[0.6 0 0 0.6 54.4 195.87526] CT
0.149 GC
/Helvetica-Bold 25 F
GS
[1 0 0 1 0 0] CT
-14 10 moveto 
1 -1 scale
(0) t 
GR
GR
GS
[0 -0.6 0.6 0 16.8 253.2] CT
0.149 GC
/Helvetica-Bold 27.5 F
GS
[1 0 0 1 0 0] CT
0 0 moveto 
1 -1 scale
(QTF-/) t 
GR
GR
GS
[0 -0.6 0.6 0 16.8 210] CT
0.149 GC
N
/f-1302711506{1.781 5.266 M
1.781 5.094 1.813 5.047 QT
4.578 -6.141 L
4.984 -7.641 5.945 -9.086 QT
6.906 -10.531 8.273 -11.453 QT
9.641 -12.375 11.156 -12.375 QT
13.375 -12.375 14.281 -11.742 QT
15.188 -11.109 15.648 -10.07 QT
16.109 -9.031 16.109 -7.813 QT
16.109 -6.453 15.555 -5.008 QT
15 -3.563 14.023 -2.359 QT
13.047 -1.156 11.773 -0.422 QT
10.5 0.313 8.109 0.313 QT
7.297 0.313 6.57 -0.172 QT
5.844 -0.656 5.844 -0.656 QT
4.781 5.156 L
4.688 5.547 4.359 5.797 QT
4.031 6.047 2.625 6.047 QT
2.281 6.047 2.031 5.836 QT
1.781 5.625 1.781 5.266 QT
cp
8.203 -0.422 M
9.656 -0.422 10.758 -1.945 QT
11.859 -3.469 12.438 -5.531 QT
13.016 -7.594 13.016 -9.016 QT
13.016 -10.078 12.555 -10.867 QT
12.094 -11.656 11.109 -11.656 QT
10.891 -11.656 9.961 -10.727 QT
9.031 -9.797 8.469 -8.555 QT
7.906 -7.313 7.547 -5.969 QT
6.781 -2.828 L
6.969 -1.813 7.586 -1.117 QT
8.203 -0.422 8.203 -0.422 QT
cp}def
f-1302711506
f
GR
GS
[0 -0.6 0.6 0 16.8 200.4] CT
0.149 GC
/Helvetica-Bold 27.5 F
GS
[1 0 0 1 0 0] CT
0 0 moveto 
1 -1 scale
(g) t 
GR
GR
GS
[0.6 0 0 0.6 152.4 175.2] CT
/Helvetica-Bold 25 F
GS
[1 0 0 1 0 0] CT
0 0 moveto 
1 -1 scale
(QTF- for ) t 
GR
GR
GS
[0.6 0 0 0.6 216 175.2] CT
N
/f737086292{1.359 0 M
1.141 0 1.141 -0.203 QT
1.156 -0.219 1.164 -0.234 QT
1.172 -0.25 1.172 -0.281 QT
9.781 -17.625 L
9.891 -17.891 10.234 -17.891 QT
10.578 -17.891 L
11.906 -17.891 12.016 -17.625 QT
20.625 -0.281 L
20.641 -0.25 20.648 -0.234 QT
20.656 -0.219 20.656 -0.203 QT
20.656 0 19.453 0 QT
1.359 0 L
cp
4 -2 M
16.172 -2 L
9.984 -14.453 L
4 -2 L
cp}def
f737086292
f
GR
GS
[0.6 0 0 0.6 229.8 175.2] CT
/Helvetica-Bold 25 F
GS
[1 0 0 1 0 0] CT
0 0 moveto 
1 -1 scale
(w=0.189) t 
GR
GR
GS
[0.6 0 0 0.6 0 0] CT
0 0 1 RC
1 LJ
3.333 LW
N
99 326.37 M
110.485 326.496 L
122.156 326.502 L
133.827 327.101 L
145.498 328.134 L
157.168 320.887 L
168.654 325.453 L
180.324 324.733 L
191.995 322.157 L
203.666 318.646 L
215.337 317.74 L
226.822 322.667 L
238.493 330.462 L
250.163 334.151 L
261.834 333.098 L
273.505 331.532 L
284.99 334.029 L
296.661 343.67 L
308.332 347.894 L
320.002 356.297 L
331.673 368.865 L
343.159 366.312 L
354.829 363.474 L
366.5 358.823 L
378.171 355.638 L
389.841 344.749 L
401.327 337.452 L
412.998 331.858 L
424.668 331.062 L
436.339 320.446 L
448.01 315.304 L
459.495 314.378 L
471.166 314.8 L
482.837 318.748 L
494.507 323.004 L
506.178 325.879 L
517.663 330.111 L
529.334 330.372 L
541.005 331.194 L
552.676 330.249 L
564.346 326.81 L
575.832 324.799 L
587.502 324.014 L
599.173 323.966 L
610.844 325.705 L
622.515 327.371 L
634 328.067 L
S
GR
GS
[0.6 0 0 0.6 0 0] CT
0 0 1 RC
[12 3 6 3] 0 setdash
2 LJ
3.333 LW
N
99 337.772 M
110.485 334.943 L
122.156 315.93 L
133.827 319.772 L
145.498 302 L
157.168 424.652 L
168.654 359.269 L
180.324 357.567 L
191.995 365.28 L
203.666 377.382 L
215.337 390.174 L
226.822 399.992 L
238.493 402.715 L
250.163 396.423 L
261.834 382.916 L
273.505 367.161 L
284.99 351.48 L
296.661 339.459 L
308.332 332.447 L
320.002 325.544 L
331.673 315.19 L
343.159 313.757 L
354.829 322.117 L
366.5 324.593 L
378.171 325.996 L
389.841 329.578 L
401.327 328.801 L
412.998 330.63 L
424.668 328.294 L
436.339 326.35 L
448.01 322.312 L
459.495 318.938 L
471.166 316.945 L
482.837 314.435 L
494.507 314.519 L
506.178 320.205 L
517.663 322.838 L
529.334 327.826 L
541.005 333.134 L
552.676 333.412 L
564.346 335.257 L
575.832 334.168 L
587.502 329.906 L
599.173 326.776 L
610.844 323.668 L
622.515 322.465 L
634 322.821 L
S
GR
GS
[0.6 0 0 0.6 0 0] CT
1 0 0 RC
[12 12] 0 setdash
2 LJ
3.333 LW
N
99 326.369 M
110.485 326.516 L
122.156 326.869 L
133.827 327.384 L
145.498 328.391 L
157.168 322.54 L
168.654 326.685 L
180.324 325.804 L
191.995 323.071 L
203.666 319.631 L
215.337 318.857 L
226.822 323.588 L
238.493 330.987 L
250.163 335.044 L
261.834 334.664 L
273.505 333.535 L
284.99 335.901 L
296.661 345.237 L
308.332 349.836 L
320.002 357.404 L
331.673 369.561 L
343.159 367.387 L
354.829 365.12 L
366.5 360.972 L
378.171 357.653 L
389.841 348.614 L
401.327 341.091 L
412.998 335.143 L
424.668 331.868 L
436.339 323.651 L
448.01 317.843 L
459.495 316.212 L
471.166 315.196 L
482.837 317.879 L
494.507 320.856 L
506.178 323.824 L
517.663 325.867 L
529.334 328.636 L
541.005 329.433 L
552.676 327.946 L
564.346 325.716 L
575.832 323.392 L
587.502 323.676 L
599.173 325.07 L
610.844 326.626 L
622.515 328.799 L
634 329.809 L
S
GR
GS
[0.6 0 0 0.6 0 0] CT
1 0 0 RC
[3 3] 0 setdash
2 LJ
3.333 LW
N
99 337.063 M
110.485 333.96 L
122.156 321.432 L
133.827 322.636 L
145.498 304.469 L
157.168 437 L
168.654 367.169 L
180.324 365.224 L
191.995 372.232 L
203.666 383.252 L
215.337 395.139 L
226.822 404.603 L
238.493 407.439 L
250.163 401.41 L
261.834 387.847 L
273.505 372.074 L
284.99 356.456 L
296.661 344.219 L
308.332 337.008 L
320.002 328.553 L
331.673 318.692 L
343.159 314.286 L
354.829 320.631 L
366.5 322.481 L
378.171 322.914 L
389.841 326.777 L
401.327 324.349 L
412.998 325.43 L
424.668 325.159 L
436.339 322.656 L
448.01 320.593 L
459.495 317.685 L
471.166 316.998 L
482.837 315.241 L
494.507 314.596 L
506.178 319.965 L
517.663 322.886 L
529.334 328.511 L
541.005 333.435 L
552.676 334.921 L
564.346 336.241 L
575.832 334.196 L
587.502 331.524 L
599.173 327.232 L
610.844 325.165 L
622.515 323.557 L
634 323.617 L
S
GR
%%Trailer
%%Pages: 1
%%EOF
